<?xml version="1.0" encoding="utf-8"?>
<!-- Generator: Adobe Illustrator 16.0.0, SVG Export Plug-In . SVG Version: 6.00 Build 0)  -->
<!DOCTYPE svg PUBLIC "-//W3C//DTD SVG 1.1//EN" "http://www.w3.org/Graphics/SVG/1.1/DTD/svg11.dtd">
<svg version="1.1" id="Layer_1" xmlns="http://www.w3.org/2000/svg" xmlns:xlink="http://www.w3.org/1999/xlink" x="0px" y="0px"
	 width="841.89px" height="595.28px" viewBox="0 0 841.89 595.28" enable-background="new 0 0 841.89 595.28" xml:space="preserve">
<g>
	<path fill="#D7D7D7" d="M449.965,303.268c0-1.426-0.811-2.645-1.98-3.274c0.977-0.673,1.625-1.796,1.625-3.078
		c0-2.055-1.658-3.723-3.721-3.723h-14.868c3.286-8.021,1.183-15.182-1.302-16.819c-1.326-0.884-2.299-0.709-2.879-0.408
		c-1.539,0.811-1.654,3.204-1.665,3.618c-0.577,7.597-5.133,12.915-7.803,14.97l-3.301,0.043l-0.057,23.246l29.488,0.061
		c2.051,0,3.725-1.674,3.725-3.729c0-0.488-0.107-0.959-0.278-1.389c1.073-0.651,1.796-1.822,1.796-3.167
		c0-1.144-0.521-2.151-1.338-2.835C448.887,306.291,449.965,304.908,449.965,303.268z"/>
	<g>
		<g>
			<path fill="#EA5857" d="M409.859,293.138h-18.242v26.02h18.242c1.755,0,3.175-1.425,3.175-3.189v-19.646
				C413.034,294.563,411.614,293.138,409.859,293.138z M406.767,314.417c-1.844,0-3.337-1.494-3.337-3.337
				c0-1.844,1.494-3.338,3.337-3.338c1.844,0,3.338,1.494,3.338,3.338C410.105,312.923,408.611,314.417,406.767,314.417z"/>
		</g>
	</g>
</g>
</svg>
